%YAML 1.1
%TAG !u! tag:unity3d.com,2011:
--- !u!74 &7400000
AnimationClip:
  m_ObjectHideFlags: 0
  m_CorrespondingSourceObject: {fileID: 0}
  m_PrefabInstance: {fileID: 0}
  m_PrefabAsset: {fileID: 0}
  m_Name: Death
  serializedVersion: 7
  m_Legacy: 0
  m_Compressed: 0
  m_UseHighQualityCurve: 1
  m_RotationCurves: []
  m_CompressedRotationCurves: []
  m_EulerCurves: []
  m_PositionCurves: []
  m_ScaleCurves: []
  m_FloatCurves:
  - serializedVersion: 2
    curve:
      serializedVersion: 2
      m_Curve:
      - serializedVersion: 3
        time: 0
        value: 1
        inSlope: Infinity
        outSlope: Infinity
        tangentMode: 103
        weightedMode: 0
        inWeight: 0
        outWeight: 0
      - serializedVersion: 3
        time: 0.85
        value: 0
        inSlope: Infinity
        outSlope: Infinity
        tangentMode: 103
        weightedMode: 0
        inWeight: 0
        outWeight: 0
      m_PreInfinity: 2
      m_PostInfinity: 2
      m_RotationOrder: 4
    attribute: m_Enabled
    path: 
    classID: 212
    script: {fileID: 0}
    flags: 0
  m_PPtrCurves:
  - serializedVersion: 2
    curve:
    - time: 0
      value: {fileID: 1269610035, guid: 98459871327a06c4db401c2e0c72bf15, type: 3}
    - time: 0.083333336
      value: {fileID: -231255319, guid: 98459871327a06c4db401c2e0c72bf15, type: 3}
    - time: 0.16666667
      value: {fileID: 1548167763, guid: 98459871327a06c4db401c2e0c72bf15, type: 3}
    - time: 0.25
      value: {fileID: -783582814, guid: 98459871327a06c4db401c2e0c72bf15, type: 3}
    - time: 0.33333334
      value: {fileID: 739038281, guid: 98459871327a06c4db401c2e0c72bf15, type: 3}
    - time: 0.5
      value: {fileID: 180979589, guid: 98459871327a06c4db401c2e0c72bf15, type: 3}
    - time: 0.6666667
      value: {fileID: 728933518, guid: 98459871327a06c4db401c2e0c72bf15, type: 3}
    - time: 0.75
      value: {fileID: -107931154, guid: 98459871327a06c4db401c2e0c72bf15, type: 3}
    - time: 0.8333333
      value: {fileID: 1306100028, guid: 98459871327a06c4db401c2e0c72bf15, type: 3}
    attribute: m_Sprite
    path: 
    classID: 212
    script: {fileID: 0}
    flags: 2
  m_SampleRate: 60
  m_WrapMode: 0
  m_Bounds:
    m_Center: {x: 0, y: 0, z: 0}
    m_Extent: {x: 0, y: 0, z: 0}
  m_ClipBindingConstant:
    genericBindings:
    - serializedVersion: 2
      path: 0
      attribute: 3305885265
      script: {fileID: 0}
      typeID: 212
      customType: 0
      isPPtrCurve: 0
      isIntCurve: 0
      isSerializeReferenceCurve: 0
    - serializedVersion: 2
      path: 0
      attribute: 0
      script: {fileID: 0}
      typeID: 212
      customType: 23
      isPPtrCurve: 1
      isIntCurve: 0
      isSerializeReferenceCurve: 0
    pptrCurveMapping:
    - {fileID: 1269610035, guid: 98459871327a06c4db401c2e0c72bf15, type: 3}
    - {fileID: -231255319, guid: 98459871327a06c4db401c2e0c72bf15, type: 3}
    - {fileID: 1548167763, guid: 98459871327a06c4db401c2e0c72bf15, type: 3}
    - {fileID: -783582814, guid: 98459871327a06c4db401c2e0c72bf15, type: 3}
    - {fileID: 739038281, guid: 98459871327a06c4db401c2e0c72bf15, type: 3}
    - {fileID: 180979589, guid: 98459871327a06c4db401c2e0c72bf15, type: 3}
    - {fileID: 728933518, guid: 98459871327a06c4db401c2e0c72bf15, type: 3}
    - {fileID: -107931154, guid: 98459871327a06c4db401c2e0c72bf15, type: 3}
    - {fileID: 1306100028, guid: 98459871327a06c4db401c2e0c72bf15, type: 3}
  m_AnimationClipSettings:
    serializedVersion: 2
    m_AdditiveReferencePoseClip: {fileID: 0}
    m_AdditiveReferencePoseTime: 0
    m_StartTime: 0
    m_StopTime: 1.5
    m_OrientationOffsetY: 0
    m_Level: 0
    m_CycleOffset: 0
    m_HasAdditiveReferencePose: 0
    m_LoopTime: 0
    m_LoopBlend: 0
    m_LoopBlendOrientation: 0
    m_LoopBlendPositionY: 0
    m_LoopBlendPositionXZ: 0
    m_KeepOriginalOrientation: 0
    m_KeepOriginalPositionY: 1
    m_KeepOriginalPositionXZ: 0
    m_HeightFromFeet: 0
    m_Mirror: 0
  m_EditorCurves:
  - serializedVersion: 2
    curve:
      serializedVersion: 2
      m_Curve:
      - serializedVersion: 3
        time: 0
        value: 1
        inSlope: Infinity
        outSlope: Infinity
        tangentMode: 103
        weightedMode: 0
        inWeight: 0
        outWeight: 0
      - serializedVersion: 3
        time: 0.85
        value: 0
        inSlope: Infinity
        outSlope: Infinity
        tangentMode: 103
        weightedMode: 0
        inWeight: 0
        outWeight: 0
      m_PreInfinity: 2
      m_PostInfinity: 2
      m_RotationOrder: 4
    attribute: m_Enabled
    path: 
    classID: 212
    script: {fileID: 0}
    flags: 0
  m_EulerEditorCurves: []
  m_HasGenericRootTransform: 0
  m_HasMotionFloatCurves: 0
  m_Events:
  - time: 1.5
    functionName: RestartLevel
    data: 
    objectReferenceParameter: {fileID: 0}
    floatParameter: 0
    intParameter: 0
    messageOptions: 0
