%YAML 1.1
%TAG !u! tag:unity3d.com,2011:
--- !u!114 &11400000
MonoBehaviour:
  m_ObjectHideFlags: 0
  m_CorrespondingSourceObject: {fileID: 0}
  m_PrefabInstance: {fileID: 0}
  m_PrefabAsset: {fileID: 0}
  m_GameObject: {fileID: 0}
  m_Enabled: 1
  m_EditorHideFlags: 0
  m_Script: {fileID: 11500000, guid: 10b823639e543694d890e5f8a77be1af, type: 3}
  m_Name: Player Controller over platforms
  m_EditorClassIdentifier: 
  PlayerLayer:
    serializedVersion: 2
    m_Bits: 64
  SnapInput: 1
  VerticalDeadZoneThreshold: 0.3
  HorizontalDeadZoneThreshold: 0.1
  MaxSpeed: 28
  Acceleration: 120
  GroundDeceleration: 60
  AirDeceleration: 30
  GroundingForce: -1.5
  GrounderDistance: 0.05
  JumpPower: 36
  MaxFallSpeed: 25
  FallAcceleration: 110
  JumpEndEarlyGravityModifier: 3
  CoyoteTime: 0.15
  JumpBuffer: 0.2
